Problem 2 Plotly
…
Loading data

We’re gonna look at Instacart data.

library(tidyverse)
library(p8105.datasets)
library(plotly)

data("instacart")

instacart %>% 
    count(aisle) %>% 
    arrange(desc(n))

## # A tibble: 134 x 2
##    aisle                              n
##    <chr>                          <int>
##  1 fresh vegetables              150609
##  2 fresh fruits                  150473
##  3 packaged vegetables fruits     78493
##  4 yogurt                         55240
##  5 packaged cheese                41699
##  6 water seltzer sparkling water  36617
##  7 milk                           32644
##  8 chips pretzels                 31269
##  9 soy lactosefree                26240
## 10 bread                          23635
## # ... with 124 more rows

Plotly plots

scatterplot

Screen out the most popular bread.

instacart %>%
  filter(aisle == "bread") %>% 
  group_by(product_name) %>% 
  count(product_name) %>% 
  arrange(desc(n)) 

## # A tibble: 505 x 2
## # Groups:   product_name [505]
##    product_name                                       n
##    <chr>                                          <int>
##  1 100% Whole Wheat Bread                          2298
##  2 Organic Bread with 21 Whole Grains               938
##  3 Sourdough Bread                                  738
##  4 Ezekiel 4:9 Bread Organic Sprouted Whole Grain   698
##  5 Organic 21 Grain Thin Sliced Bread               546
##  6 Whole Wheat Bread                                498
##  7 Organic Good Seed Bread                          428
##  8 Organic Whole Wheat Bread                        400
##  9 Organic Honey Sweet Whole Wheat Bread            383
## 10 Gluten Free 7 Grain Bread                        347
## # ... with 495 more rows
…
box plot

Screen out the most popular packaged cheese.

instacart %>%
  filter(aisle == "packaged cheese") %>% 
  group_by(product_name) %>% 
  count(product_name) %>% 
  arrange(desc(n)) 

## # A tibble: 791 x 2
## # Groups:   product_name [791]
##    product_name                                                       n
##    <chr>                                                          <int>
##  1 Organic Whole String Cheese                                     1993
##  2 Grated Parmesan                                                 1694
##  3 Feta Cheese Crumbles                                            1449
##  4 Organic Sticks Low Moisture Part Skim Mozzarella String Cheese  1342
##  5 Shredded Parmesan                                               1324
##  6 Sharp Cheddar Cheese                                            1262
##  7 Shredded Mild Cheddar Cheese                                    1036
##  8 Shredded Mozzarella                                              944
##  9 Organic American Cheese Singles                                  696
## 10 Organic Mexican Blend Finely Shredded Cheese                     664
## # ... with 781 more rows
…
